module gitlab.com/gitlab-org/cluster-integration/gitlab-agent/v15

go 1.17

require (
	cloud.google.com/go/profiler v0.2.0
	github.com/aquasecurity/starboard v0.15.4
	github.com/ash2k/stager v0.3.0
	github.com/bmatcuk/doublestar/v2 v2.0.4
	github.com/envoyproxy/protoc-gen-validate v0.6.7
	github.com/getsentry/sentry-go v0.13.0
	github.com/go-logr/zapr v1.2.3
	github.com/go-redis/redis/v8 v8.11.5
	github.com/go-redis/redismock/v8 v8.0.6
	github.com/golang-jwt/jwt/v4 v4.4.1
	github.com/golang/mock v1.6.0
	github.com/google/go-cmp v0.5.8
	github.com/grpc-ecosystem/go-grpc-middleware v1.3.0
	github.com/grpc-ecosystem/go-grpc-prometheus v1.2.1-0.20200507082539-9abf3eb82b4a
	github.com/hashicorp/go-retryablehttp v0.7.1
	github.com/opentracing/opentracing-go v1.2.0
	github.com/piotrkowalczuk/promgrpc/v4 v4.0.4
	github.com/prometheus/client_golang v1.12.1
	github.com/robfig/cron/v3 v3.0.1
	github.com/spf13/cobra v1.4.0
	github.com/stretchr/testify v1.7.1
	gitlab.com/gitlab-org/gitaly/v14 v14.10.2
	gitlab.com/gitlab-org/labkit v1.14.0
	gitlab.com/gitlab-org/security-products/analyzers/report/v3 v3.7.1
	go.uber.org/zap v1.21.0
	golang.org/x/sync v0.0.0-20210220032951-036812b2e83c
	golang.org/x/time v0.0.0-20220411224347-583f2d630306
	golang.org/x/tools v0.1.9
	google.golang.org/api v0.78.0
	google.golang.org/genproto v0.0.0-20220505152158-f39f71e6c8f3
	google.golang.org/grpc v1.46.0
	google.golang.org/protobuf v1.28.0
	k8s.io/api v0.23.5
	k8s.io/apimachinery v0.23.5
	k8s.io/apiserver v0.23.5
	k8s.io/cli-runtime v0.23.5
	k8s.io/client-go v0.23.5
	k8s.io/klog/v2 v2.60.1
	k8s.io/kubectl v0.23.5
	k8s.io/utils v0.0.0-20220210201930-3a6ce19ff2f9
	nhooyr.io/websocket v1.8.7
	sigs.k8s.io/cli-utils v0.30.0
	sigs.k8s.io/controller-runtime v0.11.2
	sigs.k8s.io/yaml v1.3.0
)

require (
	cloud.google.com/go v0.100.2 // indirect
	cloud.google.com/go/compute v1.6.1 // indirect
	cloud.google.com/go/monitoring v1.0.0 // indirect
	cloud.google.com/go/trace v0.1.0 // indirect
	contrib.go.opencensus.io/exporter/stackdriver v0.13.8 // indirect
	github.com/Azure/go-ansiterm v0.0.0-20210617225240-d185dfc1b5a1 // indirect
	github.com/Azure/go-autorest v14.2.0+incompatible // indirect
	github.com/Azure/go-autorest/autorest v0.11.18 // indirect
	github.com/Azure/go-autorest/autorest/adal v0.9.13 // indirect
	github.com/Azure/go-autorest/autorest/date v0.3.0 // indirect
	github.com/Azure/go-autorest/logger v0.2.1 // indirect
	github.com/Azure/go-autorest/tracing v0.6.0 // indirect
	github.com/DataDog/datadog-go v4.4.0+incompatible // indirect
	github.com/DataDog/sketches-go v1.0.0 // indirect
	github.com/MakeNowJust/heredoc v0.0.0-20170808103936-bb23615498cd // indirect
	github.com/Microsoft/go-winio v0.5.1 // indirect
	github.com/OneOfOne/xxhash v1.2.8 // indirect
	github.com/PuerkitoBio/purell v1.1.1 // indirect
	github.com/PuerkitoBio/urlesc v0.0.0-20170810143723-de5bf2ad4578 // indirect
	github.com/StackExchange/wmi v0.0.0-20190523213315-cbe66965904d // indirect
	github.com/aws/aws-sdk-go v1.38.35 // indirect
	github.com/beevik/ntp v0.3.0 // indirect
	github.com/benbjohnson/clock v1.1.0 // indirect
	github.com/beorn7/perks v1.0.1 // indirect
	github.com/caarlos0/env/v6 v6.9.1 // indirect
	github.com/census-instrumentation/opencensus-proto v0.3.0 // indirect
	github.com/cespare/xxhash/v2 v2.1.2 // indirect
	github.com/chai2010/gettext-go v0.0.0-20160711120539-c6fed771bfd5 // indirect
	github.com/client9/reopen v1.0.0 // indirect
	github.com/davecgh/go-spew v1.1.1 // indirect
	github.com/dgryski/go-rendezvous v0.0.0-20200823014737-9f7001d12a5f // indirect
	github.com/evanphx/json-patch v4.12.0+incompatible // indirect
	github.com/exponent-io/jsonpath v0.0.0-20151013193312-d6023ce2651d // indirect
	github.com/form3tech-oss/jwt-go v3.2.3+incompatible // indirect
	github.com/fsnotify/fsnotify v1.5.1 // indirect
	github.com/fvbommel/sortorder v1.0.1 // indirect
	github.com/ghodss/yaml v1.0.0 // indirect
	github.com/go-errors/errors v1.0.1 // indirect
	github.com/go-logr/logr v1.2.3 // indirect
	github.com/go-ole/go-ole v1.2.4 // indirect
	github.com/go-openapi/jsonpointer v0.19.5 // indirect
	github.com/go-openapi/jsonreference v0.19.5 // indirect
	github.com/go-openapi/swag v0.19.14 // indirect
	github.com/gobwas/glob v0.2.3 // indirect
	github.com/gogo/protobuf v1.3.2 // indirect
	github.com/golang/groupcache v0.0.0-20210331224755-41bb18bfe9da // indirect
	github.com/golang/protobuf v1.5.2 // indirect
	github.com/google/btree v1.0.1 // indirect
	github.com/google/go-containerregistry v0.8.0 // indirect
	github.com/google/gofuzz v1.2.0 // indirect
	github.com/google/pprof v0.0.0-20220113144219-d25a53d42d00 // indirect
	github.com/google/shlex v0.0.0-20191202100458-e7afc7fbc510 // indirect
	github.com/google/uuid v1.3.0 // indirect
	github.com/googleapis/gax-go/v2 v2.3.0 // indirect
	github.com/googleapis/gnostic v0.5.5 // indirect
	github.com/gorhill/cronexpr v0.0.0-20180427100037-88b0669f7d75 // indirect
	github.com/gregjones/httpcache v0.0.0-20180305231024-9cad4c3443a7 // indirect
	github.com/hashicorp/go-cleanhttp v0.5.2 // indirect
	github.com/hashicorp/yamux v0.0.0-20210316155119-a95892c5f864 // indirect
	github.com/imdario/mergo v0.3.12 // indirect
	github.com/inconshreveable/mousetrap v1.0.0 // indirect
	github.com/jmespath/go-jmespath v0.4.0 // indirect
	github.com/jonboulle/clockwork v0.2.2 // indirect
	github.com/josharian/intern v1.0.0 // indirect
	github.com/json-iterator/go v1.1.12 // indirect
	github.com/klauspost/compress v1.13.6 // indirect
	github.com/liggitt/tabwriter v0.0.0-20181228230101-89fcab3d43de // indirect
	github.com/lightstep/lightstep-tracer-common/golang/gogo v0.0.0-20210210170715-a8dfcb80d3a7 // indirect
	github.com/lightstep/lightstep-tracer-go v0.25.0 // indirect
	github.com/mailru/easyjson v0.7.6 // indirect
	github.com/matttproud/golang_protobuf_extensions v1.0.2-0.20181231171920-c182affec369 // indirect
	github.com/mitchellh/go-wordwrap v1.0.0 // indirect
	github.com/moby/spdystream v0.2.0 // indirect
	github.com/moby/term v0.0.0-20210610120745-9d4ed1856297 // indirect
	github.com/modern-go/concurrent v0.0.0-20180306012644-bacd9c7ef1dd // indirect
	github.com/modern-go/reflect2 v1.0.2 // indirect
	github.com/monochromegane/go-gitignore v0.0.0-20200626010858-205db1a8cc00 // indirect
	github.com/munnerz/goautoneg v0.0.0-20191010083416-a7dc8b61c822 // indirect
	github.com/oklog/ulid/v2 v2.0.2 // indirect
	github.com/open-policy-agent/opa v0.39.0 // indirect
	github.com/pelletier/go-toml v1.9.4 // indirect
	github.com/peterbourgon/diskv v2.0.1+incompatible // indirect
	github.com/philhofer/fwd v1.1.1 // indirect
	github.com/pkg/errors v0.9.1 // indirect
	github.com/pmezard/go-difflib v1.0.0 // indirect
	github.com/prometheus/client_model v0.2.1-0.20200623203004-60555c9708c7 // indirect
	github.com/prometheus/common v0.32.1 // indirect
	github.com/prometheus/procfs v0.7.3 // indirect
	github.com/rcrowley/go-metrics v0.0.0-20200313005456-10cdbea86bc0 // indirect
	github.com/russross/blackfriday v1.5.2 // indirect
	github.com/sebest/xff v0.0.0-20210106013422-671bd2870b3a // indirect
	github.com/shirou/gopsutil/v3 v3.21.2 // indirect
	github.com/sirupsen/logrus v1.8.1 // indirect
	github.com/spf13/pflag v1.0.5 // indirect
	github.com/spyzhov/ajson v0.4.2 // indirect
	github.com/tinylib/msgp v1.1.2 // indirect
	github.com/tklauser/go-sysconf v0.3.4 // indirect
	github.com/tklauser/numcpus v0.2.1 // indirect
	github.com/uber/jaeger-client-go v2.29.1+incompatible // indirect
	github.com/uber/jaeger-lib v2.4.1+incompatible // indirect
	github.com/xeipuuv/gojsonpointer v0.0.0-20190905194746-02993c407bfb // indirect
	github.com/xeipuuv/gojsonreference v0.0.0-20180127040603-bd5ef7bd5415 // indirect
	github.com/xlab/treeprint v1.0.0 // indirect
	github.com/yashtewari/glob-intersection v0.1.0 // indirect
	gitlab.com/gitlab-org/security-products/analyzers/common/v2 v2.24.0 // indirect
	gitlab.com/gitlab-org/security-products/analyzers/ruleset v1.0.0 // indirect
	go.opencensus.io v0.23.0 // indirect
	go.starlark.net v0.0.0-20200306205701-8dd3e2ee1dd5 // indirect
	go.uber.org/atomic v1.7.0 // indirect
	go.uber.org/multierr v1.6.0 // indirect
	golang.org/x/crypto v0.0.0-20210921155107-089bfa567519 // indirect
	golang.org/x/mod v0.5.1 // indirect
	golang.org/x/net v0.0.0-20220425223048-2871e0cb64e4 // indirect
	golang.org/x/oauth2 v0.0.0-20220411215720-9780585627b5 // indirect
	golang.org/x/sys v0.0.0-20220502124256-b6088ccd6cba // indirect
	golang.org/x/term v0.0.0-20210927222741-03fcf44c2211 // indirect
	golang.org/x/text v0.3.7 // indirect
	golang.org/x/xerrors v0.0.0-20220411194840-2f41105eb62f // indirect
	gomodules.xyz/jsonpatch/v2 v2.2.0 // indirect
	google.golang.org/appengine v1.6.7 // indirect
	gopkg.in/DataDog/dd-trace-go.v1 v1.32.0 // indirect
	gopkg.in/inf.v0 v0.9.1 // indirect
	gopkg.in/yaml.v2 v2.4.0 // indirect
	gopkg.in/yaml.v3 v3.0.0-20210107192922-496545a6307b // indirect
	k8s.io/apiextensions-apiserver v0.23.5 // indirect
	k8s.io/component-base v0.23.5 // indirect
	k8s.io/kube-openapi v0.0.0-20211115234752-e816edb12b65 // indirect
	sigs.k8s.io/json v0.0.0-20211020170558-c049b76a60c6 // indirect
	sigs.k8s.io/kustomize/api v0.10.1 // indirect
	sigs.k8s.io/kustomize/kyaml v0.13.0 // indirect
	sigs.k8s.io/structured-merge-diff/v4 v4.2.1 // indirect
)

replace (
	// same version as used by rules_go to maintain compatibility with patches - see the WORKSPACE file
	golang.org/x/tools => golang.org/x/tools v0.1.9

	// https://github.com/kubernetes/kubernetes/issues/79384#issuecomment-505627280
	k8s.io/api => k8s.io/api v0.23.5
	k8s.io/apiextensions-apiserver => k8s.io/apiextensions-apiserver v0.23.5
	k8s.io/apimachinery => k8s.io/apimachinery v0.23.5
	k8s.io/apiserver => k8s.io/apiserver v0.23.5
	k8s.io/cli-runtime => k8s.io/cli-runtime v0.23.5
	k8s.io/client-go => k8s.io/client-go v0.23.5
	k8s.io/cloud-provider => k8s.io/cloud-provider v0.23.5
	k8s.io/cluster-bootstrap => k8s.io/cluster-bootstrap v0.23.5
	k8s.io/code-generator => k8s.io/code-generator v0.23.5
	k8s.io/component-base => k8s.io/component-base v0.23.5
	k8s.io/component-helpers => k8s.io/component-helpers v0.23.5
	k8s.io/controller-manager => k8s.io/controller-manager v0.23.5
	k8s.io/cri-api => k8s.io/cri-api v0.23.5
	k8s.io/csi-translation-lib => k8s.io/csi-translation-lib v0.23.5
	k8s.io/kube-aggregator => k8s.io/kube-aggregator v0.23.5
	k8s.io/kube-controller-manager => k8s.io/kube-controller-manager v0.23.5
	k8s.io/kube-proxy => k8s.io/kube-proxy v0.23.5
	k8s.io/kube-scheduler => k8s.io/kube-scheduler v0.23.5
	k8s.io/kubectl => k8s.io/kubectl v0.23.5
	k8s.io/kubelet => k8s.io/kubelet v0.23.5
	k8s.io/legacy-cloud-providers => k8s.io/legacy-cloud-providers v0.23.5
	k8s.io/metrics => k8s.io/metrics v0.23.5
	k8s.io/mount-utils => k8s.io/mount-utils v0.23.5
	k8s.io/sample-apiserver => k8s.io/sample-apiserver v0.23.5
)
